{"strings": {
    "cause": "Possible Cause",
    "action": "Action Steps",
    "start": "Machine Start-up Tests",
    "not_conn": "Patient Not Connected",
    "conn": "Patient Connected",
    "disconn": "Patient Disconnected",
    "instructions": "On-screen Instructions",
    "information": "Alarm Information",
    "identification": "Alarm Identification",
    "layer": "Layer",
    "system": "System",
    "protocol": "Protocol",
    "alarm_name": "Alarm Name",
    "alarm_expl": "Alarm Explanation",
    "state": "System State",
    "message_number": "Message number",
    "message_type": "Message type",
    "version": "Version",  
    "occurs": "Occurs during",
    "more_info1": "More information 1",
    "more_info2": "More information 2",
    "more_info3": "More information 3",
    "more_info4": "More information 4",
    "more_info5": "More information 5",
    "more_info6": "More information 6",
    "description": "Alarm Description",
    "response": "System Response",
    "causeaction": "Possible Cause/Operator Action",
    "possible_cause": "Possible Cause",
    "operator_action": "Operator Action"
}}
